<svg width="48" height="75" viewBox="0 0 48 75" fill="none" xmlns="http://www.w3.org/2000/svg">
<path d="M48 23.8636C48 37.0432 24 75 24 75C24 75 0 37.0432 0 23.8636C0 10.6841 10.7452 0 24 0C37.2548 0 48 10.6841 48 23.8636Z" fill="#C20012"/>
<ellipse cx="24.5" cy="24" rx="8.5" ry="9" fill="white"/>
</svg>
