<svg width="31" height="29" viewBox="0 0 31 29" fill="none" xmlns="http://www.w3.org/2000/svg">
<path d="M3.84707 14.8568V14.4185L3.52476 14.1215C2.1206 12.8274 1.24316 10.9759 1.24316 8.91801C1.24316 5.011 4.41042 1.84375 8.31742 1.84375C12.2244 1.84375 15.3917 5.011 15.3917 8.91801C15.3917 10.9759 14.5142 12.8274 13.1101 14.1215L12.7878 14.4185V14.8568V17.8742H3.84707V14.8568Z" stroke="#757575" stroke-width="2" stroke-linecap="round"/>
<circle cx="8.3174" cy="8.91801" r="3.71925" stroke="#757575"/>
<path d="M18.959 25.0179L18.9101 25.0668M18.959 25.0179L21.5453 22.4316C23.5259 22.5124 25.5329 21.7967 27.045 20.2846C29.9159 17.4138 29.9159 12.7592 27.045 9.88839C24.7959 7.6392 21.4518 7.15216 18.7285 8.42727M18.959 25.0179L14.9374 20.9963" stroke="#757575" stroke-width="2" stroke-linecap="round"/>
<path d="M24.5632 17.8028C23.0631 19.303 20.6308 19.303 19.1306 17.8028C17.6305 16.3026 17.6305 13.8704 19.1306 12.3702C20.6308 10.87 23.0631 10.87 24.5632 12.3702C26.0634 13.8704 26.0634 16.3026 24.5632 17.8028Z" stroke="#757575" stroke-linecap="round"/>
<rect x="6.99609" y="20.7402" width="2.64252" height="3.27996" rx="1" stroke="#757575" stroke-linejoin="round"/>
<rect x="7.37703" y="25.5545" width="2.64252" height="3.27996" rx="1" transform="rotate(-45 7.37703 25.5545)" stroke="#757575" stroke-linejoin="round"/>
<rect x="13.5259" y="23.6859" width="2.64252" height="3.27996" rx="1" transform="rotate(45 13.5259 23.6859)" stroke="#757575" stroke-linejoin="round"/>
<line x1="8.33179" y1="18.5403" x2="8.33179" y2="20.6651" stroke="#757575"/>
<line x1="14.4901" y1="24.4701" x2="16.4935" y2="22.4667" stroke="#757575"/>
<circle cx="9.95662" cy="15.3857" r="0.485669" fill="#757575"/>
<circle cx="18.82" cy="21.4262" r="0.485669" fill="#757575"/>
</svg>
