<svg width="155" height="108" viewBox="0 0 155 108" fill="none" xmlns="http://www.w3.org/2000/svg">
<circle cx="105.196" cy="8.70879" r="7.03996" stroke="#757575" stroke-width="2"/>
<circle cx="145.855" cy="12.3264" r="6.73791" stroke="#757575" stroke-width="2"/>
<circle cx="146.684" cy="8.65808" r="7.73791" fill="#9E42DC" fill-opacity="0.1"/>
<path d="M121.488 54.1573C121.488 56.7852 121.488 57.6487 121.488 61.3527C121.488 65.9828 121.891 70.4251 121.488 75.6809C121.086 80.9367 119.343 91.8236 118.136 95.828C116.929 99.8324 114.784 107.716 109.554 105.464C104.324 103.211 108.079 96.4537 109.554 88.4449C111.029 80.4361 110.358 72.5525 110.224 67.4218C110.09 62.2912 109.017 62.6666 106.336 58.2868C103.654 53.907 104.324 50.0278 101.91 38.2648C99.9791 28.8545 100.569 25.7512 100.971 24.0618C101.374 22.3724 103.144 19.4692 108.079 19.3691C114.247 19.244 114.515 23.3735 115.99 30.7566C117.465 38.1397 124.17 42.5196 128.327 45.2726C132.484 48.0256 136.239 48.4636 135.836 52.2802C135.426 56.1808 130.863 53.7338 125.913 51.4043C118.203 47.7753 113.107 42.6447 109.889 38.2648" stroke="#757575" stroke-width="2" stroke-linecap="round" stroke-linejoin="round"/>
<path d="M132.244 43.4671C132.915 39.6087 134.511 31.2037 135.53 28.4506C136.804 25.0094 140.692 21.3804 145.922 23.8205C151.152 26.2607 153.901 37.398 153.566 40.2136C153.23 43.0292 150.683 43.4671 149.006 43.4671C147.665 43.4671 144.911 41.6291 144.441 41.2537C144.464 43.9859 146.137 51.4634 146.727 55.1675C147.464 59.7976 149.409 65.9293 148.068 67.8064C146.727 69.6834 143.978 68.1818 142.905 66.117C142.047 64.4652 140.173 58.0392 139.815 56.2455" stroke="#757575" stroke-width="2" stroke-linecap="round" stroke-linejoin="round"/>
<path d="M127.283 56.1061C126.523 56.9612 125.942 59.7601 127.283 63.364C129.249 68.6484 129.965 67.6187 131.842 71.3728C133.768 75.2233 135.396 80.0699 134.658 85.9513C133.921 91.8328 132.178 99.5913 131.842 102.157C131.507 104.722 135.664 110.291 138.681 103.408C141.698 96.5254 143.106 88.0161 143.106 85.5134C143.106 83.5112 142.14 75.8152 141.559 71.3728" stroke="#757575" stroke-width="2" stroke-linecap="round" stroke-linejoin="round"/>
<path d="M127.913 13.1895C124.82 15.3102 125.667 22.5414 126.477 25.8919C127.14 24.2351 128.973 20.7668 131.006 20.1482C133.546 19.375 135.866 19.2461 135.866 15.9509C135.866 12.2141 131.779 10.5385 127.913 13.1895Z" stroke="#757575" stroke-width="2" stroke-linecap="round" stroke-linejoin="round"/>
<path d="M128.913 9.18947C125.82 11.3102 126.667 18.5414 127.477 21.8919C128.14 20.2351 129.973 16.7668 132.006 16.1482C134.546 15.375 136.866 15.2461 136.866 11.9509C136.866 8.21412 132.779 6.53852 128.913 9.18947Z" fill="#9E42DC" fill-opacity="0.1"/>
<path d="M135.917 45.3364L140.417 29.8364C140.792 28.8364 142.117 26.5864 144.417 25.5864C147.292 24.3364 151.042 26.0864 152.292 29.0864C153.542 32.0864 148.167 36.5864 146.167 40.0864C144.167 43.5864 146.417 43.8364 146.167 47.8364C145.917 51.8364 145.417 56.5864 144.417 59.7114C143.417 62.8364 142.167 66.3364 141.542 70.5864C140.917 74.8364 143.167 80.5864 143.167 84.3364C143.167 88.0864 140.417 110.086 136.917 107.336C133.417 104.586 137.292 92.9614 138.792 86.7114C140.292 80.4614 138.792 76.9614 134.167 70.5864C130.467 65.4864 130.542 60.1281 131.042 58.0864C132.333 58.5864 135.692 59.4614 138.792 58.9614C142.667 58.3364 142.292 56.4614 142.167 51.4614C142.067 47.4614 137.958 45.7114 135.917 45.3364Z" fill="#9E42DC" fill-opacity="0.1"/>
<path d="M26.401 49.4515C20.3237 51.1331 12.6135 52.4308 10.934 42.7058C2.76579 42.7058 -2.04358 27.6971 8.35498 20.9122C8.29733 18.4715 9.58879 13.936 15.2159 15.3197C19.3094 5.51833 39.3157 0.444685 42.3138 20.9122C49.353 21.8971 55.7249 37.8893 39.6617 42.7058C41.6692 46.1978 38.4208 52.5696 27.1139 49.4515" stroke="#9E42DC" stroke-width="2" stroke-linecap="round" stroke-linejoin="round"/>
<line x1="1.57727" y1="83.507" x2="32.1195" y2="83.507" stroke="#757575" stroke-width="2" stroke-linecap="round"/>
<line x1="28.6154" y1="95.2363" x2="59.1576" y2="95.2363" stroke="#757575" stroke-width="2" stroke-linecap="round"/>
<line x1="39.724" y1="83.507" x2="96.4808" y2="83.507" stroke="#757575" stroke-width="2" stroke-linecap="round"/>
<line x1="39.7243" y1="75.3718" x2="93.1973" y2="75.3901" stroke="#9E42DC" stroke-width="2" stroke-linecap="round"/>
<line x1="46.0647" y1="68.9749" x2="87.0966" y2="69.0755" stroke="#9E42DC" stroke-width="2" stroke-linecap="round"/>
<line x1="45.9469" y1="64.556" x2="86.9788" y2="64.6565" stroke="#9E42DC" stroke-width="2" stroke-linecap="round"/>
<line x1="45.9469" y1="60.1375" x2="86.9788" y2="60.2381" stroke="#9E42DC" stroke-width="2" stroke-linecap="round"/>
<line x1="45.957" y1="75.3705" x2="45.9735" y2="57.5048" stroke="#9E42DC" stroke-width="2" stroke-linecap="round"/>
<line x1="26.2015" y1="33.8545" x2="18.1018" y2="25.4033" stroke="#757575" stroke-width="2" stroke-linecap="round"/>
<line x1="26.7355" y1="43.1598" x2="38.1081" y2="32.0862" stroke="#757575" stroke-width="2" stroke-linecap="round"/>
<line x1="33.121" y1="36.5784" x2="32.4605" y2="30.6388" stroke="#757575" stroke-width="2" stroke-linecap="round"/>
<line x1="26.7214" y1="28.7301" x2="30.7542" y2="24.3197" stroke="#757575" stroke-width="2" stroke-linecap="round"/>
<line x1="26.5972" y1="83.5067" x2="26.6151" y2="22.3645" stroke="#757575" stroke-width="2" stroke-linecap="round"/>
<line x1="86.9774" y1="75.3895" x2="86.9939" y2="57.5238" stroke="#9E42DC" stroke-width="2" stroke-linecap="round"/>
<line x1="89.0991" y1="83.507" x2="89.0991" y2="75.5737" stroke="#9E42DC" stroke-width="2" stroke-linecap="round"/>
<line x1="44.0623" y1="83.507" x2="44.0623" y2="75.5737" stroke="#9E42DC" stroke-width="2" stroke-linecap="round"/>
</svg>
