<svg width="119" height="133" viewBox="0 0 119 133" fill="none" xmlns="http://www.w3.org/2000/svg">
<path d="M97.6131 15.9213C97.6131 15.9213 57.9606 23.5385 61.4353 45.6791C64.91 67.8197 66.3408 75.7416 66.3408 75.7416" stroke="#9E42DC" stroke-width="2" stroke-miterlimit="10" stroke-linecap="round"/>
<path d="M23.0095 18.1556C23.0095 18.1556 30.572 42.4291 35.6819 47.3041" stroke="#9E42DC" stroke-width="2" stroke-miterlimit="10" stroke-linecap="round"/>
<path d="M45.9018 66.6009C45.9018 66.6009 54.282 77.8743 62.2533 81.8353" stroke="#9E42DC" stroke-width="2" stroke-miterlimit="10" stroke-linecap="round"/>
<path d="M94.7514 1.60095C94.7514 1.60095 133.995 35.6244 108.65 93.4135L87.9042 131.601" stroke="#666666" stroke-width="2" stroke-miterlimit="10" stroke-linecap="round"/>
<path d="M25.1554 76.1478C25.2576 80.8197 30.674 117.382 41.5069 123.07" stroke="#666666" stroke-width="2" stroke-miterlimit="10" stroke-linecap="round"/>
<path d="M22.3964 30.0385C22.3964 30.0385 22.6008 50.1478 22.9074 54.4135" stroke="#666666" stroke-width="2" stroke-miterlimit="10" stroke-linecap="round"/>
<path d="M49.3205 63.6515C50.6298 63.8349 51.9386 63.7206 53.1576 63.2494C57.9609 61.4213 59.8004 54.7182 57.3477 48.5229C54.895 42.3276 48.9676 38.7729 44.1643 40.601C42.5796 41.201 41.2734 42.3547 40.3694 43.8169" stroke="#9E42DC" stroke-width="2" stroke-miterlimit="10" stroke-linecap="round"/>
<path d="M46.0042 47.101C46.9637 47.101 47.7415 46.2825 47.7415 45.2728C47.7415 44.2632 46.9637 43.4447 46.0042 43.4447C45.0447 43.4447 44.2668 44.2632 44.2668 45.2728C44.2668 46.2825 45.0447 47.101 46.0042 47.101Z" stroke="#9E42DC" stroke-width="2" stroke-miterlimit="10" stroke-linecap="round"/>
<path d="M50.6026 52.3821C51.5622 52.3821 52.34 51.5637 52.34 50.554C52.34 49.5444 51.5622 48.7259 50.6026 48.7259C49.6431 48.7259 48.8653 49.5444 48.8653 50.554C48.8653 51.5637 49.6431 52.3821 50.6026 52.3821Z" stroke="#9E42DC" stroke-width="2" stroke-miterlimit="10" stroke-linecap="round"/>
<path d="M51.625 59.39C52.5846 59.39 53.3624 58.5715 53.3624 57.5619C53.3624 56.5522 52.5846 55.7338 51.625 55.7338C50.6655 55.7338 49.8877 56.5522 49.8877 57.5619C49.8877 58.5715 50.6655 59.39 51.625 59.39Z" stroke="#9E42DC" stroke-width="2" stroke-miterlimit="10" stroke-linecap="round"/>
<path d="M46.3995 60.5102C46.3995 60.5102 17.8995 81.2418 3.18225 74.3313C1.34258 73.4675 1.12982 70.8225 1.70471 68.9869C2.62454 66.0715 4.56199 62.3458 11.3457 60.5102L13.6203 60.0125C13.9652 59.9045 14.7951 59.8624 14.7951 59.8624C28.7702 59.4177 40.484 48.4904 40.484 48.4904" stroke="#9E42DC" stroke-width="2" stroke-miterlimit="10" stroke-linecap="round"/>
<path d="M13.6205 60.6073C13.6205 60.6073 19.3085 68.2956 15.5142 74.8822" stroke="#9E42DC" stroke-width="2" stroke-miterlimit="10" stroke-linecap="round"/>
<path d="M66.2385 84.2728C48.4562 101.538 47.2299 124.288 47.2299 127.335" stroke="#666666" stroke-width="2" stroke-miterlimit="10" stroke-linecap="round"/>
<path d="M55.0991 81.8353C55.0991 81.8353 56.5299 87.9291 57.7562 88.4369" stroke="#666666" stroke-width="2" stroke-miterlimit="10" stroke-linecap="round"/>
<path d="M93.5254 9.3197C82.6925 12.6713 73.9035 15.7181 67.8739 17.9525C51.2158 24.0463 45.4928 27.0931 38.9521 24.1478C32.2071 21.2025 28.4258 13.5853 28.2214 12.976C26.4841 9.21814 25.9731 5.86658 25.8709 3.73376" stroke="#9E42DC" stroke-width="2" stroke-miterlimit="10" stroke-linecap="round"/>
</svg>
